%YAML 1.1
%TAG !u! tag:unity3d.com,2011:
--- !u!1045 &1
EditorBuildSettings:
  m_ObjectHideFlags: 0
  serializedVersion: 2
  m_Scenes:
  - enabled: 1
    path: Assets/Scenes/SampleScene.unity
    guid: 99c9720ab356a0642a771bea13969a05
  m_configObjects:
    com.unity.xr.management.loader_settings: {fileID: 11400000, guid: 422dc39c66c77644a8fd6e1b94edd4b9,
      type: 2}
    com.unity.xr.openxr.settings4: {fileID: 11400000, guid: 2826e997b1570524cadc91ed5ebf46dd,
      type: 2}
